Tomato Project: Visualizing COVID-19 Inequities
…
Rows: 717 Columns: 36
── Column specification ────────────────────────────────────────────────────────
Delimiter: ","
chr   (4): Phase, Perc population completed at least one dose, Perc populati...
dbl  (31): Daily Confirmed, False Positives Found, Cumulative Confirmed, Dai...
date  (1): Date

ℹ Use `spec()` to retrieve the full column specification for this data.
ℹ Specify the column types or set `show_col_types = FALSE` to quiet this message.

covid_data

# A tibble: 717 × 36
   Date       `Daily Confirmed` `False Positives Found` `Cumulative Confirmed`
   <date>                 <dbl>                   <dbl>                  <dbl>
 1 2020-01-23                 1                      NA                      1
 2 2020-01-24                 2                      NA                      3
 3 2020-01-25                 1                      NA                      4
 4 2020-01-26                 0                      NA                      4
 5 2020-01-27                 1                      NA                      5
 6 2020-01-28                 2                      NA                      7
 7 2020-01-29                 3                      NA                     10
 8 2020-01-30                 3                      NA                     13
 9 2020-01-31                 3                      NA                     16
10 2020-02-01                 2                      NA                     18
# ℹ 707 more rows
# ℹ 32 more variables: `Daily Discharged` <dbl>,
#   `Passed but not due to COVID` <dbl>, `Cumulative Discharged` <dbl>,
#   `Discharged to Isolation` <dbl>, `Still Hospitalised` <dbl>,
#   `Daily Deaths` <dbl>, `Cumulative Deaths` <dbl>,
#   `Tested positive demise` <dbl>, `Daily Imported` <dbl>,
#   `Daily Local transmission` <dbl>, …
…
